﻿[Info] @09:58:21_0472 #1 DJ.Client .ctor() - 启动成功
[Info] @09:58:21_0711 #3 NSJL.Plugin.Third.ThirdParty.SerialPortHelp Start() - 端口“COM4”不存在。
[Info] @09:58:24_0593 #4 DJ.ZEF.ThirdParty.RFIDHelper ConnectCOM() - 初始化UHF失败！错误码是 COM9FAIL_TO_OPEN--------UHF设备错误
[Info] @09:59:12_0596 #1 DJ.Client .ctor() - 启动成功
[Info] @09:59:12_0846 #4 NSJL.Plugin.Third.ThirdParty.SerialPortHelp Start() - 端口“COM4”不存在。
[Info] @09:59:13_9104 #3 DJ.ZEF.ThirdParty.RFIDHelper ConnectCOM() - 初始化UHF失败！错误码是 COM9FAIL_TO_OPEN--------UHF设备错误
