﻿[Info] @15:50:40_9576 #1 DJ.Client .ctor() - 启动成功
[Info] @15:50:41_2089 #3 NSJL.Plugin.Third.ThirdParty.SerialPortHelp Start() - 端口“COM4”不存在。
[Info] @15:50:43_7766 #4 DJ.ZEF.ThirdParty.RFIDHelper ConnectCOM() - 初始化UHF失败！错误码是 COM9FAIL_TO_OPEN--------UHF设备错误
[Info] @15:51:17_8029 #1 DJ.Client .ctor() - 启动成功
[Info] @15:51:17_8627 #3 NSJL.Plugin.Third.ThirdParty.SerialPortHelp Start() - 端口“COM4”不存在。
[Info] @15:51:19_4584 #4 DJ.ZEF.ThirdParty.RFIDHelper ConnectCOM() - 初始化UHF失败！错误码是 COM9FAIL_TO_OPEN--------UHF设备错误
[Info] @15:58:48_2409 #1 DJ.Client .ctor() - 启动成功
[Info] @15:58:48_3097 #3 NSJL.Plugin.Third.ThirdParty.SerialPortHelp Start() - 端口“COM4”不存在。
[Info] @15:58:49_8728 #4 DJ.ZEF.ThirdParty.RFIDHelper ConnectCOM() - 初始化UHF失败！错误码是 COM9FAIL_TO_OPEN--------UHF设备错误
