﻿[Info] @11:44:26_2463 #1 DJ.Client .ctor() - 启动成功
[Info] @11:44:28_9009 #4 NSJL.Plugin.Third.ThirdParty.SerialPortHelp Start() - 端口“COM4”不存在。
[Info] @11:44:31_4347 #4 DJ.Client <.ctor>b__1_1() - 无法加载 DLL“BaiduFaceApi.dll”: 找不到指定的模块。 (异常来自 HRESULT:0x8007007E)。
