﻿[Info] @08:39:51_1558 #1 DJ.Client .ctor() - 启动成功
[Info] @08:39:51_2027 #4 NSJL.Plugin.Third.ThirdParty.SerialPortHelp Start() - 端口“COM4”不存在。
[Info] @08:39:52_8122 #3 DJ.ZEF.ThirdParty.RFIDHelper ConnectCOM() - 初始化UHF失败！错误码是 COM9FAIL_TO_OPEN--------UHF设备错误
[Info] @08:40:14_2182 #1 DJ.Client .ctor() - 启动成功
[Info] @08:40:14_2338 #4 NSJL.Plugin.Third.ThirdParty.SerialPortHelp Start() - 端口“COM4”不存在。
[Info] @08:40:15_4839 #3 DJ.ZEF.ThirdParty.RFIDHelper ConnectCOM() - 初始化UHF失败！错误码是 COM9FAIL_TO_OPEN--------UHF设备错误
